ExifTool Version Number         : 12.22
File Name                       : 01.JPG
Directory                       : C:/Users/juamp/Desktop/Prog102/proyecto102/JalaConverter/archive
File Size                       : 80 KiB
File Modification Date/Time     : 2021:05:07 16:19:44-04:00
File Access Date/Time           : 2021:05:07 16:19:44-04:00
File Creation Date/Time         : 2021:05:07 16:19:44-04:00
File Permissions                : -rw-rw-rw-
File Type                       : JPEG
File Type Extension             : jpg
MIME Type                       : image/jpeg
JFIF Version                    : 1.01
Resolution Unit                 : inches
X Resolution                    : 96
Y Resolution                    : 96
Exif Byte Order                 : Big-endian (Motorola, MM)
Artist                          : Liliana
Date/Time Original              : 2021:02:27 11:06:30
Create Date                     : 2021:02:27 11:06:30
Sub Sec Time Original           : 17
Sub Sec Time Digitized          : 17
XP Author                       : Liliana
Padding                         : (Binary data 2060 bytes, use -b option to extract)
About                           : uuid:faf5bdd5-ba3d-11da-ad31-d33d75182f1b
Creator                         : Liliana
Image Width                     : 1160
Image Height                    : 810
Encoding Process                : Baseline DCT, Huffman coding
Bits Per Sample                 : 8
Color Components                : 3
Y Cb Cr Sub Sampling            : YCbCr4:2:0 (2 2)
Image Size                      : 1160x810
Megapixels                      : 0.940
Create Date                     : 2021:02:27 11:06:30.17
Date/Time Original              : 2021:02:27 11:06:30.17
