ExifTool Version Number         : 12.22
File Name                       : imagenText.png
Directory                       : C:/Users/juamp/Desktop/Prog102/proyecto102/JalaConverter/archive
File Size                       : 65 KiB
File Modification Date/Time     : 2021:05:07 15:30:10-04:00
File Access Date/Time           : 2021:05:07 15:30:10-04:00
File Creation Date/Time         : 2021:05:07 15:13:51-04:00
File Permissions                : -rw-rw-rw-
File Type                       : PNG
File Type Extension             : png
MIME Type                       : image/png
Image Width                     : 497
Image Height                    : 248
Bit Depth                       : 8
Color Type                      : RGB with Alpha
Compression                     : Deflate/Inflate
Filter                          : Adaptive
Interlace                       : Noninterlaced
SRGB Rendering                  : Perceptual
Gamma                           : 2.2
Pixels Per Unit X               : 3779
Pixels Per Unit Y               : 3779
Pixel Units                     : meters
Image Size                      : 497x248
Megapixels                      : 0.123
